<svg width="34" height="34" viewBox="0 0 34 34" fill="none" xmlns="http://www.w3.org/2000/svg">
<path fill-rule="evenodd" clip-rule="evenodd" d="M16.7988 33C25.6354 33 32.7988 25.8366 32.7988 17C32.7988 8.16344 25.6354 1 16.7988 1C7.96227 1 0.798828 8.16344 0.798828 17C0.798828 25.8366 7.96227 33 16.7988 33Z" stroke="#2B2F43"/>
<path d="M25.4477 16.4645H22.9107V14.2102C22.9107 14.0382 22.7537 13.8983 22.5605 13.8983H21.8381C21.6436 13.8983 21.4865 14.0382 21.4865 14.2102V16.4645H18.9495C18.7564 16.4645 18.5986 16.6047 18.5986 16.777V17.4191C18.5986 17.5914 18.7564 17.7309 18.9495 17.7309H21.4865V19.9864C21.4865 20.1587 21.6436 20.2983 21.8381 20.2983H22.5605C22.7537 20.2983 22.9107 20.1587 22.9107 19.9864V17.7306H25.4477C25.6409 17.7306 25.7986 17.5911 25.7986 17.4188V16.7767C25.7986 16.6044 25.6409 16.4645 25.4477 16.4645Z" fill="#2B2F43"/>
<path fill-rule="evenodd" clip-rule="evenodd" d="M16.7838 18.6645C16.3149 18.3044 15.8887 17.7764 15.8813 17.6142C15.8813 17.3189 15.9056 17.1776 16.5167 16.6615C17.3067 15.9909 17.7417 15.1092 17.7417 14.1777C17.7417 13.333 17.5037 12.5827 17.0986 12.0556H17.4129C17.4779 12.0556 17.5417 12.0337 17.5936 11.9925L18.4706 11.3036C18.5795 11.219 18.6252 11.0681 18.5836 10.93C18.5418 10.7923 18.4243 10.6984 18.2904 10.6984H14.3684C13.9393 10.6984 13.5033 10.7804 13.0754 10.94C11.6462 11.4745 10.6467 12.795 10.6467 14.1507C10.6467 16.0713 12.0189 17.527 13.8532 17.5727C13.8173 17.7249 13.7992 17.8749 13.7992 18.0219C13.7992 18.318 13.8684 18.5982 14.0108 18.8692H13.9604C12.2118 18.8692 10.6336 19.7994 10.0345 21.1837C9.87836 21.5437 9.79883 21.9077 9.79883 22.2671C9.79883 22.6165 9.88163 22.9528 10.044 23.2688C10.4205 23.9992 11.2292 24.5658 12.3222 24.8651C12.8864 25.0195 13.4927 25.0984 14.1221 25.0984C14.6877 25.0984 15.2269 25.0192 15.7255 24.8628C17.28 24.3734 18.2851 23.1327 18.2851 21.7004C18.2848 20.3261 17.8773 19.5034 16.7838 18.6645ZM11.8305 21.8105C11.8305 20.8107 13.0018 19.9339 14.3369 19.9339H14.3729C14.6634 19.9378 14.9468 19.9841 15.2139 20.0729C15.2994 20.1368 15.382 20.1979 15.4616 20.2567L15.4789 20.2695L15.4808 20.2709C16.0982 20.727 16.5061 21.0284 16.6197 21.5119C16.6464 21.6338 16.6597 21.7558 16.6597 21.8739C16.6597 23.1188 15.8036 23.7498 14.1141 23.7498C12.8335 23.7498 11.8305 22.8984 11.8305 21.8105ZM13.8342 11.9694C13.5274 11.9694 13.2541 12.1058 13.0454 12.3642C12.7226 12.7635 12.586 13.3958 12.6712 14.0992C12.8229 15.3573 13.6701 16.4446 14.5192 16.4729H14.5331H14.5337C14.853 16.4729 15.1225 16.3365 15.3317 16.0774C15.6587 15.6733 15.8036 15.0101 15.7178 14.3048C15.5653 13.0451 14.7358 11.9977 13.869 11.97L13.8342 11.9694Z" fill="#2B2F43"/>
</svg>
